@startuml

title __RANDOMGENERATOR's Class Diagram__\n

  namespace RandomGenerator {
    class RandomGenerator.RandomGenerator {
        {static} + getRandomNumber()
    }
  }
  



right footer


PlantUML diagram generated by SketchIt! (https://bitbucket.org/pmesmeur/sketch.it)
For more information about this tool, please contact philippe.mesmeur@gmail.com
endfooter

@enduml
