@startuml

title __PLAYER's Class Diagram__\n

  namespace Player {
    class Player.AutoPlayer {
        + AutoPlayer()
        + AutoPlayer()
        + AutoPlayer()
        + Chose()
        + ChosePosition()
        + ChoseSquare()
        + Display()
        + Display()
        + ExceptionPrinter()
    }
  }
  

  namespace Player {
    class Player.ConsolePlayer {
        + Chose()
        + ChosePosition()
        + ChoseSquare()
        + ConsolePlayer()
        + ConsolePlayer()
        + ConsolePlayer()
        + Display()
        + Display()
        + ExceptionPrinter()
    }
  }
  

  namespace Player {
    abstract class Player.Player {
        # ID : int
        # budget : int
        # currentMoves : List<Move>
        {abstract} + Chose()
        {abstract} + ChosePosition()
        {abstract} + ChoseSquare()
        {abstract} + Display()
        {abstract} + Display()
        {abstract} + ExceptionPrinter()
        + ExecuteMoves()
        + Player()
        + Player()
        + Player()
        + PropagateMove()
        + getArenaChampions()
        + getBenchChampions()
        + getBudget()
        + getCurrentMoves()
        + getGame()
        + getID()
        + setArenaChampions()
        + setBenchChampions()
        + setBudget()
        + setCurrentMoves()
        + setGame()
        + setID()
        + toString()
    }
  }
  

  namespace Player {
    enum ChampionType {
      InArena
      InBench
      InStore
    }
  }
  

  Player.AutoPlayer -up-|> Player.Player
  Player.ConsolePlayer -up-|> Player.Player
  Player.Player o-- Champion.ChampionList : arenaChampions
  Player.Player o-- Champion.ChampionList : benchChampions
  Player.Player o-- Game.Game : game
  Player.Player +-down- Player.Player.ChampionType


right footer


PlantUML diagram generated by SketchIt! (https://bitbucket.org/pmesmeur/sketch.it)
For more information about this tool, please contact philippe.mesmeur@gmail.com
endfooter

@enduml
