<?xml version="1.0" encoding="UTF-8" standalone="no"?><svg xmlns="http://www.w3.org/2000/svg" xmlns:xlink="http://www.w3.org/1999/xlink" contentScriptType="application/ecmascript" contentStyleType="text/css" height="591px" preserveAspectRatio="none" style="width:842px;height:591px;" version="1.1" viewBox="0 0 842 591" width="842px" zoomAndPan="magnify"><defs><filter height="300%" id="ffutywecy6kgu" width="300%" x="-1" y="-1"><feGaussianBlur result="blurOut" stdDeviation="2.0"/><feColorMatrix in="blurOut" result="blurOut2" type="matrix" values="0 0 0 0 0 0 0 0 0 0 0 0 0 0 0 0 0 0 .4 0"/><feOffset dx="4.0" dy="4.0" in="blurOut2" result="blurOut3"/><feBlend in="SourceGraphic" in2="blurOut3" mode="normal"/></filter></defs><g><text fill="#000000" font-family="sans-serif" font-size="18" lengthAdjust="spacingAndGlyphs" text-decoration="underline" textLength="212" x="309" y="16.708">PLAYER's Class Diagram</text><text fill="#000000" font-family="sans-serif" font-size="18" lengthAdjust="spacingAndGlyphs" textLength="0" x="418" y="37.6611"/><!--MD5=[0ba1dcf811818f640fc389b59dfbae80]
cluster Player--><polygon fill="#FFFFFF" filter="url(#ffutywecy6kgu)" points="22,65.9063,77,65.9063,84,88.2031,500,88.2031,500,507.9063,22,507.9063,22,65.9063" style="stroke: #000000; stroke-width: 1.5;"/><line style="stroke: #000000; stroke-width: 1.5;" x1="22" x2="84" y1="88.2031" y2="88.2031"/><text fill="#000000" font-family="sans-serif" font-size="14" font-weight="bold" lengthAdjust="spacingAndGlyphs" textLength="49" x="26" y="80.9014">Player</text><!--MD5=[0219281b868824cc7575cd92d7b536b8]
cluster Champion--><polygon fill="#FFFFFF" filter="url(#ffutywecy6kgu)" points="524,370.4063,608,370.4063,615,392.7031,672,392.7031,672,469.4063,524,469.4063,524,370.4063" style="stroke: #000000; stroke-width: 1.5;"/><line style="stroke: #000000; stroke-width: 1.5;" x1="524" x2="615" y1="392.7031" y2="392.7031"/><text fill="#000000" font-family="sans-serif" font-size="14" font-weight="bold" lengthAdjust="spacingAndGlyphs" textLength="78" x="528" y="385.4014">Champion</text><!--MD5=[2b611c2d60e481aa2035053367969193]
cluster Game--><polygon fill="#FFFFFF" filter="url(#ffutywecy6kgu)" points="696,370.4063,747,370.4063,754,392.7031,796,392.7031,796,469.4063,696,469.4063,696,370.4063" style="stroke: #000000; stroke-width: 1.5;"/><line style="stroke: #000000; stroke-width: 1.5;" x1="696" x2="754" y1="392.7031" y2="392.7031"/><text fill="#000000" font-family="sans-serif" font-size="14" font-weight="bold" lengthAdjust="spacingAndGlyphs" textLength="45" x="700" y="385.4014">Game</text><!--MD5=[f753fb1735ce7f320814a73cbec5aec7]
class Player.AutoPlayer--><rect fill="#FEFECE" filter="url(#ffutywecy6kgu)" height="124.8281" id="Player.AutoPlayer" style="stroke: #A80036; stroke-width: 1.5;" width="126" x="38" y="366.9063"/><ellipse cx="65.15" cy="382.9063" fill="#ADD1B2" rx="11" ry="11" style="stroke: #A80036; stroke-width: 1.0;"/><path d="M67.4938,378.5781 L67.6656,378.6563 C67.8844,378.3438 68.0875,378.25 68.3844,378.25 C68.6813,378.25 68.9625,378.3906 69.1188,378.6563 C69.2125,378.8125 69.2281,378.9375 69.2281,379.375 L69.2281,380.7969 C69.2281,381.2188 69.1969,381.4063 69.0875,381.5625 C68.9156,381.7813 68.65,381.9219 68.3844,381.9219 C68.1656,381.9219 67.9313,381.8125 67.7906,381.6719 C67.65,381.5469 67.6188,381.4219 67.5563,381.0156 C67.4625,380.6094 67.2906,380.3906 66.8063,380.1094 C66.3375,379.8594 65.7281,379.7031 65.15,379.7031 C63.4156,379.7031 62.1656,381.0156 62.1656,382.7969 L62.1656,383.8906 C62.1656,385.5938 63.4625,386.6875 65.5094,386.6875 C66.275,386.6875 66.9625,386.5625 67.3844,386.2969 C67.5719,386.2031 67.5719,386.2031 68.025,385.7188 C68.2125,385.5313 68.4156,385.4531 68.6344,385.4531 C69.1031,385.4531 69.4938,385.8438 69.4938,386.2969 C69.4938,386.6875 69.1656,387.1406 68.5875,387.5469 C67.8375,388.0938 66.6813,388.3906 65.4625,388.3906 C62.5719,388.3906 60.4625,386.5 60.4625,383.9219 L60.4625,382.7969 C60.4625,380.0781 62.4625,378 65.0875,378 C65.9625,378 66.5563,378.1406 67.4938,378.5781 Z "/><text fill="#000000" font-family="sans-serif" font-size="12" lengthAdjust="spacingAndGlyphs" textLength="67" x="81.85" y="387.0605">AutoPlayer</text><line style="stroke: #A80036; stroke-width: 1.5;" x1="39" x2="163" y1="398.9063" y2="398.9063"/><line style="stroke: #A80036; stroke-width: 1.5;" x1="39" x2="163" y1="406.9063" y2="406.9063"/><ellipse cx="49" cy="417.9063" fill="#84BE84" rx="3" ry="3" style="stroke: #038048; stroke-width: 1.0;"/><text fill="#000000" font-family="sans-serif" font-size="11" lengthAdjust="spacingAndGlyphs" textLength="44" x="58" y="421.1167">Chose()</text><ellipse cx="49" cy="430.7109" fill="#84BE84" rx="3" ry="3" style="stroke: #038048; stroke-width: 1.0;"/><text fill="#000000" font-family="sans-serif" font-size="11" lengthAdjust="spacingAndGlyphs" textLength="89" x="58" y="433.9214">ChosePosition()</text><ellipse cx="49" cy="443.5156" fill="#84BE84" rx="3" ry="3" style="stroke: #038048; stroke-width: 1.0;"/><text fill="#000000" font-family="sans-serif" font-size="11" lengthAdjust="spacingAndGlyphs" textLength="85" x="58" y="446.7261">ChoseSquare()</text><ellipse cx="49" cy="456.3203" fill="#84BE84" rx="3" ry="3" style="stroke: #038048; stroke-width: 1.0;"/><text fill="#000000" font-family="sans-serif" font-size="11" lengthAdjust="spacingAndGlyphs" textLength="49" x="58" y="459.5308">Display()</text><ellipse cx="49" cy="469.125" fill="#84BE84" rx="3" ry="3" style="stroke: #038048; stroke-width: 1.0;"/><text fill="#000000" font-family="sans-serif" font-size="11" lengthAdjust="spacingAndGlyphs" textLength="49" x="58" y="472.3354">Display()</text><ellipse cx="49" cy="481.9297" fill="#84BE84" rx="3" ry="3" style="stroke: #038048; stroke-width: 1.0;"/><text fill="#000000" font-family="sans-serif" font-size="11" lengthAdjust="spacingAndGlyphs" textLength="100" x="58" y="485.1401">ExceptionPrinter()</text><!--MD5=[20f27527c9897d5589f589cf798d3b51]
class Player.ConsolePlayer--><rect fill="#FEFECE" filter="url(#ffutywecy6kgu)" height="124.8281" id="Player.ConsolePlayer" style="stroke: #A80036; stroke-width: 1.5;" width="126" x="199" y="366.9063"/><ellipse cx="216.7" cy="382.9063" fill="#ADD1B2" rx="11" ry="11" style="stroke: #A80036; stroke-width: 1.0;"/><path d="M219.0438,378.5781 L219.2156,378.6563 C219.4344,378.3438 219.6375,378.25 219.9344,378.25 C220.2313,378.25 220.5125,378.3906 220.6688,378.6563 C220.7625,378.8125 220.7781,378.9375 220.7781,379.375 L220.7781,380.7969 C220.7781,381.2188 220.7469,381.4063 220.6375,381.5625 C220.4656,381.7813 220.2,381.9219 219.9344,381.9219 C219.7156,381.9219 219.4813,381.8125 219.3406,381.6719 C219.2,381.5469 219.1688,381.4219 219.1063,381.0156 C219.0125,380.6094 218.8406,380.3906 218.3563,380.1094 C217.8875,379.8594 217.2781,379.7031 216.7,379.7031 C214.9656,379.7031 213.7156,381.0156 213.7156,382.7969 L213.7156,383.8906 C213.7156,385.5938 215.0125,386.6875 217.0594,386.6875 C217.825,386.6875 218.5125,386.5625 218.9344,386.2969 C219.1219,386.2031 219.1219,386.2031 219.575,385.7188 C219.7625,385.5313 219.9656,385.4531 220.1844,385.4531 C220.6531,385.4531 221.0438,385.8438 221.0438,386.2969 C221.0438,386.6875 220.7156,387.1406 220.1375,387.5469 C219.3875,388.0938 218.2313,388.3906 217.0125,388.3906 C214.1219,388.3906 212.0125,386.5 212.0125,383.9219 L212.0125,382.7969 C212.0125,380.0781 214.0125,378 216.6375,378 C217.5125,378 218.1063,378.1406 219.0438,378.5781 Z "/><text fill="#000000" font-family="sans-serif" font-size="12" lengthAdjust="spacingAndGlyphs" textLength="88" x="231.3" y="387.0605">ConsolePlayer</text><line style="stroke: #A80036; stroke-width: 1.5;" x1="200" x2="324" y1="398.9063" y2="398.9063"/><line style="stroke: #A80036; stroke-width: 1.5;" x1="200" x2="324" y1="406.9063" y2="406.9063"/><ellipse cx="210" cy="417.9063" fill="#84BE84" rx="3" ry="3" style="stroke: #038048; stroke-width: 1.0;"/><text fill="#000000" font-family="sans-serif" font-size="11" lengthAdjust="spacingAndGlyphs" textLength="44" x="219" y="421.1167">Chose()</text><ellipse cx="210" cy="430.7109" fill="#84BE84" rx="3" ry="3" style="stroke: #038048; stroke-width: 1.0;"/><text fill="#000000" font-family="sans-serif" font-size="11" lengthAdjust="spacingAndGlyphs" textLength="89" x="219" y="433.9214">ChosePosition()</text><ellipse cx="210" cy="443.5156" fill="#84BE84" rx="3" ry="3" style="stroke: #038048; stroke-width: 1.0;"/><text fill="#000000" font-family="sans-serif" font-size="11" lengthAdjust="spacingAndGlyphs" textLength="85" x="219" y="446.7261">ChoseSquare()</text><ellipse cx="210" cy="456.3203" fill="#84BE84" rx="3" ry="3" style="stroke: #038048; stroke-width: 1.0;"/><text fill="#000000" font-family="sans-serif" font-size="11" lengthAdjust="spacingAndGlyphs" textLength="49" x="219" y="459.5308">Display()</text><ellipse cx="210" cy="469.125" fill="#84BE84" rx="3" ry="3" style="stroke: #038048; stroke-width: 1.0;"/><text fill="#000000" font-family="sans-serif" font-size="11" lengthAdjust="spacingAndGlyphs" textLength="49" x="219" y="472.3354">Display()</text><ellipse cx="210" cy="481.9297" fill="#84BE84" rx="3" ry="3" style="stroke: #038048; stroke-width: 1.0;"/><text fill="#000000" font-family="sans-serif" font-size="11" lengthAdjust="spacingAndGlyphs" textLength="100" x="219" y="485.1401">ExceptionPrinter()</text><!--MD5=[5b0eee2ab41e1928a1b014b6a5e54494]
class Player.Player--><rect fill="#FEFECE" filter="url(#ffutywecy6kgu)" height="188.8516" id="Player.Player" style="stroke: #A80036; stroke-width: 1.5;" width="182" x="302" y="100.9063"/><ellipse cx="369.75" cy="116.9063" fill="#A9DCDF" rx="11" ry="11" style="stroke: #A80036; stroke-width: 1.0;"/><path d="M371.3281,118.7188 L367.2813,118.7188 L366.8906,119.7031 L367.2813,119.7031 C367.7344,119.7031 367.875,119.7344 368.0469,119.8594 C368.2656,120.0313 368.3906,120.2813 368.3906,120.5625 C368.3906,120.8438 368.25,121.1406 367.9844,121.2813 C367.8594,121.375 367.6406,121.4063 367.2813,121.4063 L365.0156,121.4063 C364.2656,121.4063 363.8906,121.125 363.8906,120.5625 C363.8906,120.2656 364.0469,119.9844 364.2969,119.8281 C364.4531,119.7188 364.6094,119.7031 365.0313,119.7031 L367.6719,113.1875 L366.5938,113.1875 C366.1563,113.1875 365.9844,113.1563 365.8125,113.0469 C365.5938,112.875 365.4531,112.625 365.4531,112.3438 C365.4531,112.0625 365.6094,111.7813 365.8594,111.6094 C366.0156,111.5156 366.1406,111.5 366.5938,111.5 L370.2656,111.5 L373.6563,119.7031 C374.125,119.7031 374.2813,119.7344 374.4531,119.875 C374.6719,120.0313 374.8125,120.2813 374.8125,120.5625 C374.8125,120.8438 374.6563,121.1406 374.4063,121.2813 C374.2656,121.375 374.0469,121.4063 373.6875,121.4063 L371.3281,121.4063 C370.9063,121.4063 370.7031,121.3594 370.5625,121.2344 C370.3438,121.0781 370.2031,120.8281 370.2031,120.5625 C370.2031,120.2656 370.3594,119.9844 370.6094,119.8281 C370.7656,119.7188 370.875,119.7031 371.3281,119.7031 L371.7188,119.7031 Z M370.625,117.0156 L369.2969,113.75 L367.9531,117.0156 Z "/><text fill="#000000" font-family="sans-serif" font-size="12" font-style="italic" lengthAdjust="spacingAndGlyphs" textLength="38" x="390.25" y="121.0605">Player</text><line style="stroke: #A80036; stroke-width: 1.5;" x1="303" x2="483" y1="132.9063" y2="132.9063"/><polygon fill="none" points="313,138.9063,317,142.9063,313,146.9063,309,142.9063" style="stroke: #B38D22; stroke-width: 1.0;"/><text fill="#000000" font-family="sans-serif" font-size="11" lengthAdjust="spacingAndGlyphs" textLength="37" x="322" y="147.1167">ID : int</text><polygon fill="none" points="313,151.7109,317,155.7109,313,159.7109,309,155.7109" style="stroke: #B38D22; stroke-width: 1.0;"/><text fill="#000000" font-family="sans-serif" font-size="11" lengthAdjust="spacingAndGlyphs" textLength="65" x="322" y="159.9214">budget : int</text><polygon fill="none" points="313,164.5156,317,168.5156,313,172.5156,309,168.5156" style="stroke: #B38D22; stroke-width: 1.0;"/><text fill="#000000" font-family="sans-serif" font-size="11" lengthAdjust="spacingAndGlyphs" textLength="156" x="322" y="172.7261">currentMoves : List&lt;Move&gt;</text><line style="stroke: #A80036; stroke-width: 1.5;" x1="303" x2="483" y1="179.3203" y2="179.3203"/><ellipse cx="313" cy="190.3203" fill="#84BE84" rx="3" ry="3" style="stroke: #038048; stroke-width: 1.0;"/><text fill="#000000" font-family="sans-serif" font-size="11" font-style="italic" lengthAdjust="spacingAndGlyphs" textLength="43" x="322" y="193.5308">Chose()</text><ellipse cx="313" cy="203.125" fill="#84BE84" rx="3" ry="3" style="stroke: #038048; stroke-width: 1.0;"/><text fill="#000000" font-family="sans-serif" font-size="11" font-style="italic" lengthAdjust="spacingAndGlyphs" textLength="87" x="322" y="206.3354">ChosePosition()</text><ellipse cx="313" cy="215.9297" fill="#84BE84" rx="3" ry="3" style="stroke: #038048; stroke-width: 1.0;"/><text fill="#000000" font-family="sans-serif" font-size="11" font-style="italic" lengthAdjust="spacingAndGlyphs" textLength="83" x="322" y="219.1401">ChoseSquare()</text><ellipse cx="313" cy="228.7344" fill="#84BE84" rx="3" ry="3" style="stroke: #038048; stroke-width: 1.0;"/><text fill="#000000" font-family="sans-serif" font-size="11" font-style="italic" lengthAdjust="spacingAndGlyphs" textLength="49" x="322" y="231.9448">Display()</text><ellipse cx="313" cy="241.5391" fill="#84BE84" rx="3" ry="3" style="stroke: #038048; stroke-width: 1.0;"/><text fill="#000000" font-family="sans-serif" font-size="11" font-style="italic" lengthAdjust="spacingAndGlyphs" textLength="49" x="322" y="244.7495">Display()</text><ellipse cx="313" cy="254.3438" fill="#84BE84" rx="3" ry="3" style="stroke: #038048; stroke-width: 1.0;"/><text fill="#000000" font-family="sans-serif" font-size="11" font-style="italic" lengthAdjust="spacingAndGlyphs" textLength="101" x="322" y="257.5542">ExceptionPrinter()</text><ellipse cx="313" cy="267.1484" fill="#84BE84" rx="3" ry="3" style="stroke: #038048; stroke-width: 1.0;"/><text fill="#000000" font-family="sans-serif" font-size="11" lengthAdjust="spacingAndGlyphs" textLength="88" x="322" y="270.3589">ExecuteMoves()</text><ellipse cx="313" cy="279.9531" fill="#84BE84" rx="3" ry="3" style="stroke: #038048; stroke-width: 1.0;"/><text fill="#000000" font-family="sans-serif" font-size="11" lengthAdjust="spacingAndGlyphs" textLength="95" x="322" y="283.1636">PropagateMove()</text><!--MD5=[b98d135159d900868ac161804fe0d097]
class Player.ChampionType--><rect fill="#FEFECE" filter="url(#ffutywecy6kgu)" height="86.4141" id="Player.ChampionType" style="stroke: #A80036; stroke-width: 1.5;" width="123" x="91.5" y="152.4063"/><ellipse cx="106.5" cy="168.4063" fill="#EB937F" rx="11" ry="11" style="stroke: #A80036; stroke-width: 1.0;"/><path d="M104.7969,169.2813 L104.7969,171.7031 L109.1563,171.7031 L109.1563,170.8281 C109.1563,170.3438 109.1875,170.2031 109.2969,170.0469 C109.4688,169.7969 109.7344,169.6875 110,169.6875 C110.2813,169.6875 110.5625,169.8438 110.7344,170.0938 C110.8125,170.25 110.8438,170.3906 110.8438,170.8281 L110.8438,173.4063 L102.8438,173.4063 C102.4531,173.4063 102.2188,173.3594 102.0781,173.2344 C101.8594,173.0781 101.7188,172.8281 101.7188,172.5625 C101.7188,172.2656 101.875,172 102.125,171.8281 C102.2813,171.7188 102.4375,171.7031 102.8438,171.7031 L103.0938,171.7031 L103.0938,165.1875 L102.8438,165.1875 C102.4219,165.1875 102.2344,165.1563 102.0781,165.0469 C101.8594,164.875 101.7188,164.625 101.7188,164.3438 C101.7188,164.0625 101.875,163.7656 102.125,163.6094 C102.2813,163.5156 102.4063,163.5 102.8438,163.5 L110.4688,163.5 L110.4688,166.0469 C110.4688,166.5156 110.4375,166.6563 110.3281,166.8281 C110.1563,167.0469 109.8906,167.1875 109.625,167.1875 C109.3438,167.1875 109.0625,167.0313 108.8906,166.7813 C108.8125,166.625 108.7813,166.4531 108.7813,166.0469 L108.7813,165.1875 L104.7969,165.1875 L104.7969,167.5938 L106.25,167.5938 L106.25,167.4688 C106.25,167.0156 106.2813,166.8594 106.3906,166.6875 C106.5625,166.4688 106.8281,166.3281 107.0781,166.3281 C107.5313,166.3281 107.8438,166.6406 107.9063,167.1094 C107.9219,167.2656 107.9219,167.3125 107.9219,167.4688 L107.9219,169.3906 C107.9219,169.8438 107.8906,170 107.7656,170.1563 C107.6094,170.375 107.3438,170.5156 107.0938,170.5156 C106.7969,170.5156 106.5156,170.3594 106.3594,170.1094 C106.2813,169.9531 106.25,169.7969 106.25,169.3906 L106.25,169.2813 Z "/><text fill="#000000" font-family="sans-serif" font-size="12" lengthAdjust="spacingAndGlyphs" textLength="91" x="120.5" y="172.5605">ChampionType</text><line style="stroke: #A80036; stroke-width: 1.5;" x1="92.5" x2="213.5" y1="184.4063" y2="184.4063"/><text fill="#000000" font-family="sans-serif" font-size="11" lengthAdjust="spacingAndGlyphs" textLength="43" x="97.5" y="198.6167">InArena</text><text fill="#000000" font-family="sans-serif" font-size="11" lengthAdjust="spacingAndGlyphs" textLength="45" x="97.5" y="211.4214">InBench</text><text fill="#000000" font-family="sans-serif" font-size="11" lengthAdjust="spacingAndGlyphs" textLength="41" x="97.5" y="224.2261">InStore</text><line style="stroke: #A80036; stroke-width: 1.5;" x1="92.5" x2="213.5" y1="230.8203" y2="230.8203"/><!--MD5=[529f3e1202aa200c2461d167716ff79c]
class Player.Player.ChampionType--><rect fill="#FEFECE" filter="url(#ffutywecy6kgu)" height="48" id="Player.Player.ChampionType" style="stroke: #A80036; stroke-width: 1.5;" width="123" x="360.5" y="405.4063"/><ellipse cx="375.5" cy="421.4063" fill="#ADD1B2" rx="11" ry="11" style="stroke: #A80036; stroke-width: 1.0;"/><path d="M377.8438,417.0781 L378.0156,417.1563 C378.2344,416.8438 378.4375,416.75 378.7344,416.75 C379.0313,416.75 379.3125,416.8906 379.4688,417.1563 C379.5625,417.3125 379.5781,417.4375 379.5781,417.875 L379.5781,419.2969 C379.5781,419.7188 379.5469,419.9063 379.4375,420.0625 C379.2656,420.2813 379,420.4219 378.7344,420.4219 C378.5156,420.4219 378.2813,420.3125 378.1406,420.1719 C378,420.0469 377.9688,419.9219 377.9063,419.5156 C377.8125,419.1094 377.6406,418.8906 377.1563,418.6094 C376.6875,418.3594 376.0781,418.2031 375.5,418.2031 C373.7656,418.2031 372.5156,419.5156 372.5156,421.2969 L372.5156,422.3906 C372.5156,424.0938 373.8125,425.1875 375.8594,425.1875 C376.625,425.1875 377.3125,425.0625 377.7344,424.7969 C377.9219,424.7031 377.9219,424.7031 378.375,424.2188 C378.5625,424.0313 378.7656,423.9531 378.9844,423.9531 C379.4531,423.9531 379.8438,424.3438 379.8438,424.7969 C379.8438,425.1875 379.5156,425.6406 378.9375,426.0469 C378.1875,426.5938 377.0313,426.8906 375.8125,426.8906 C372.9219,426.8906 370.8125,425 370.8125,422.4219 L370.8125,421.2969 C370.8125,418.5781 372.8125,416.5 375.4375,416.5 C376.3125,416.5 376.9063,416.6406 377.8438,417.0781 Z "/><text fill="#000000" font-family="sans-serif" font-size="12" lengthAdjust="spacingAndGlyphs" textLength="91" x="389.5" y="425.5605">ChampionType</text><line style="stroke: #A80036; stroke-width: 1.5;" x1="361.5" x2="482.5" y1="437.4063" y2="437.4063"/><line style="stroke: #A80036; stroke-width: 1.5;" x1="361.5" x2="482.5" y1="445.4063" y2="445.4063"/><!--MD5=[e537e69b6ab10d95810170533f6691a0]
class Champion.ChampionList--><rect fill="#FEFECE" filter="url(#ffutywecy6kgu)" height="48" id="Champion.ChampionList" style="stroke: #A80036; stroke-width: 1.5;" width="115" x="540.5" y="405.4063"/><ellipse cx="555.5" cy="421.4063" fill="#ADD1B2" rx="11" ry="11" style="stroke: #A80036; stroke-width: 1.0;"/><path d="M557.8438,417.0781 L558.0156,417.1563 C558.2344,416.8438 558.4375,416.75 558.7344,416.75 C559.0313,416.75 559.3125,416.8906 559.4688,417.1563 C559.5625,417.3125 559.5781,417.4375 559.5781,417.875 L559.5781,419.2969 C559.5781,419.7188 559.5469,419.9063 559.4375,420.0625 C559.2656,420.2813 559,420.4219 558.7344,420.4219 C558.5156,420.4219 558.2813,420.3125 558.1406,420.1719 C558,420.0469 557.9688,419.9219 557.9063,419.5156 C557.8125,419.1094 557.6406,418.8906 557.1563,418.6094 C556.6875,418.3594 556.0781,418.2031 555.5,418.2031 C553.7656,418.2031 552.5156,419.5156 552.5156,421.2969 L552.5156,422.3906 C552.5156,424.0938 553.8125,425.1875 555.8594,425.1875 C556.625,425.1875 557.3125,425.0625 557.7344,424.7969 C557.9219,424.7031 557.9219,424.7031 558.375,424.2188 C558.5625,424.0313 558.7656,423.9531 558.9844,423.9531 C559.4531,423.9531 559.8438,424.3438 559.8438,424.7969 C559.8438,425.1875 559.5156,425.6406 558.9375,426.0469 C558.1875,426.5938 557.0313,426.8906 555.8125,426.8906 C552.9219,426.8906 550.8125,425 550.8125,422.4219 L550.8125,421.2969 C550.8125,418.5781 552.8125,416.5 555.4375,416.5 C556.3125,416.5 556.9063,416.6406 557.8438,417.0781 Z "/><text fill="#000000" font-family="sans-serif" font-size="12" lengthAdjust="spacingAndGlyphs" textLength="83" x="569.5" y="425.5605">ChampionList</text><line style="stroke: #A80036; stroke-width: 1.5;" x1="541.5" x2="654.5" y1="437.4063" y2="437.4063"/><line style="stroke: #A80036; stroke-width: 1.5;" x1="541.5" x2="654.5" y1="445.4063" y2="445.4063"/><!--MD5=[6645e8c0d8d227ee45db661155c6e2e5]
class Game.Game--><rect fill="#FEFECE" filter="url(#ffutywecy6kgu)" height="48" id="Game.Game" style="stroke: #A80036; stroke-width: 1.5;" width="68" x="712" y="405.4063"/><ellipse cx="727" cy="421.4063" fill="#ADD1B2" rx="11" ry="11" style="stroke: #A80036; stroke-width: 1.0;"/><path d="M729.3438,417.0781 L729.5156,417.1563 C729.7344,416.8438 729.9375,416.75 730.2344,416.75 C730.5313,416.75 730.8125,416.8906 730.9688,417.1563 C731.0625,417.3125 731.0781,417.4375 731.0781,417.875 L731.0781,419.2969 C731.0781,419.7188 731.0469,419.9063 730.9375,420.0625 C730.7656,420.2813 730.5,420.4219 730.2344,420.4219 C730.0156,420.4219 729.7813,420.3125 729.6406,420.1719 C729.5,420.0469 729.4688,419.9219 729.4063,419.5156 C729.3125,419.1094 729.1406,418.8906 728.6563,418.6094 C728.1875,418.3594 727.5781,418.2031 727,418.2031 C725.2656,418.2031 724.0156,419.5156 724.0156,421.2969 L724.0156,422.3906 C724.0156,424.0938 725.3125,425.1875 727.3594,425.1875 C728.125,425.1875 728.8125,425.0625 729.2344,424.7969 C729.4219,424.7031 729.4219,424.7031 729.875,424.2188 C730.0625,424.0313 730.2656,423.9531 730.4844,423.9531 C730.9531,423.9531 731.3438,424.3438 731.3438,424.7969 C731.3438,425.1875 731.0156,425.6406 730.4375,426.0469 C729.6875,426.5938 728.5313,426.8906 727.3125,426.8906 C724.4219,426.8906 722.3125,425 722.3125,422.4219 L722.3125,421.2969 C722.3125,418.5781 724.3125,416.5 726.9375,416.5 C727.8125,416.5 728.4063,416.6406 729.3438,417.0781 Z "/><text fill="#000000" font-family="sans-serif" font-size="12" lengthAdjust="spacingAndGlyphs" textLength="36" x="741" y="425.5605">Game</text><line style="stroke: #A80036; stroke-width: 1.5;" x1="713" x2="779" y1="437.4063" y2="437.4063"/><line style="stroke: #A80036; stroke-width: 1.5;" x1="713" x2="779" y1="445.4063" y2="445.4063"/><!--MD5=[b79d0692ef7e15fa35aff85bbbba1ab4]
reverse link Player.Player to Player.AutoPlayer--><path d="M285.615,279.6343 C251.978,305.9333 214.816,335.2252 181,362.4063 C175.527,366.8053 169.865,371.3963 164.198,376.0182 " fill="none" id="Player.Player&lt;-Player.AutoPlayer" style="stroke: #A80036; stroke-width: 1.0;"/><polygon fill="none" points="281.742,273.7773,301.814,266.9873,290.358,284.8123,281.742,273.7773" style="stroke: #A80036; stroke-width: 1.0;"/><!--MD5=[fbc6ba7b6407a007a4ad76513fbd8a3d]
reverse link Player.Player to Player.ConsolePlayer--><path d="M330.103,307.7963 C318.662,328.0593 307.114,348.5093 296.86,366.6693 " fill="none" id="Player.Player&lt;-Player.ConsolePlayer" style="stroke: #A80036; stroke-width: 1.0;"/><polygon fill="none" points="324.166,304.0743,340.095,290.1013,336.357,310.9583,324.166,304.0743" style="stroke: #A80036; stroke-width: 1.0;"/><!--MD5=[0786b263f956e4b1b27cff73a9d3a1a4]
reverse link Player.Player to Champion.ChampionList--><path d="M414.662,302.2433 C420.434,314.8982 427.743,326.8663 437,336.9063 C457.476,359.1142 473.328,348.2263 500,362.4063 C523.546,374.9243 548.449,391.7483 567.26,405.2773 " fill="none" id="Player.Player&lt;-Champion.ChampionList" style="stroke: #A80036; stroke-width: 1.0;"/><polygon fill="#FFFFFF" points="409.586,289.9403,408.177,297.0124,414.1632,301.033,415.5722,293.9609,409.586,289.9403" style="stroke: #A80036; stroke-width: 1.0;"/><text fill="#000000" font-family="sans-serif" font-size="13" lengthAdjust="spacingAndGlyphs" textLength="109" x="438" y="332.9731">arenaChampions</text><!--MD5=[0786b263f956e4b1b27cff73a9d3a1a4]
reverse link Player.Player to Champion.ChampionList--><path d="M494.568,262.7373 C515.413,279.6043 535.883,298.9553 552,319.9063 C571.959,345.8533 584.938,381.7492 591.866,405.0223 " fill="none" id="Player.Player&lt;-Champion.ChampionList-1" style="stroke: #A80036; stroke-width: 1.0;"/><polygon fill="#FFFFFF" points="484.323,254.6603,486.5587,261.516,493.747,262.0892,491.5113,255.2334,484.323,254.6603" style="stroke: #A80036; stroke-width: 1.0;"/><text fill="#000000" font-family="sans-serif" font-size="13" lengthAdjust="spacingAndGlyphs" textLength="111" x="563" y="332.9731">benchChampions</text><!--MD5=[39f3b3b217e98581e90e3c2f7d3692a4]
reverse link Player.Player to Game.Game--><path d="M496.823,222.7872 C556.532,242.0253 629.975,273.0553 683,319.9063 C709.607,343.4153 727.872,380.9743 737.632,405.1603 " fill="none" id="Player.Player&lt;-Game.Game" style="stroke: #A80036; stroke-width: 1.0;"/><polygon fill="#FFFFFF" points="484.303,218.8592,488.8304,224.472,495.7527,222.4516,491.2253,216.8389,484.303,218.8592" style="stroke: #A80036; stroke-width: 1.0;"/><text fill="#000000" font-family="sans-serif" font-size="13" lengthAdjust="spacingAndGlyphs" textLength="37" x="698" y="332.9731">game</text><!--MD5=[23ead01795f7c605ea8ffb5d7f45749f]
reverse link Player.Player to Player.Player.ChampionType--><path d="M394.484,305.1753 C395.345,315.9253 396.491,326.6482 398,336.9063 C401.489,360.6283 408.805,387.0533 414.447,405.3823 " fill="none" id="Player.Player&lt;-Player.Player.ChampionType" style="stroke: #A80036; stroke-width: 1.0;"/><ellipse cx="393.9916" cy="297.9856" fill="#FFFFFF" rx="8" ry="8" style="stroke: #A80036; stroke-width: 1.0;"/><line style="stroke: #A80036; stroke-width: 1.0;" x1="394.5371" x2="393.446" y1="305.967" y2="290.0042"/><line style="stroke: #A80036; stroke-width: 1.0;" x1="386.0102" x2="401.9729" y1="298.5312" y2="297.4401"/><text fill="#888888" font-family="sans-serif" font-size="10" lengthAdjust="spacingAndGlyphs" textLength="0" x="830" y="543.1885"/><text fill="#888888" font-family="sans-serif" font-size="10" lengthAdjust="spacingAndGlyphs" textLength="0" x="830" y="554.8291"/><text fill="#888888" font-family="sans-serif" font-size="10" lengthAdjust="spacingAndGlyphs" textLength="413" x="417" y="566.4697">PlantUML diagram generated by SketchIt! (https://bitbucket.org/pmesmeur/sketch.it)</text><text fill="#888888" font-family="sans-serif" font-size="10" lengthAdjust="spacingAndGlyphs" textLength="402" x="428" y="578.1104">For more information about this tool, please contact philippe.mesmeur@gmail.com</text><!--MD5=[4f2959edeb894c5b124344de5172baf0]
@startuml
title __PLAYER's Class Diagram__\n

  namespace Player {
    class Player.AutoPlayer {
        + Chose()
        + ChosePosition()
        + ChoseSquare()
        + Display()
        + Display()
        + ExceptionPrinter()
    }
  }
  

  namespace Player {
    class Player.ConsolePlayer {
        + Chose()
        + ChosePosition()
        + ChoseSquare()
        + Display()
        + Display()
        + ExceptionPrinter()
    }
  }
  

  namespace Player {
    abstract class Player.Player {
        # ID : int
        # budget : int
        # currentMoves : List<Move>
        {abstract} + Chose()
        {abstract} + ChosePosition()
        {abstract} + ChoseSquare()
        {abstract} + Display()
        {abstract} + Display()
        {abstract} + ExceptionPrinter()
        + ExecuteMoves()
        + PropagateMove()
    }
  }
  

  namespace Player {
    enum ChampionType {
      InArena
      InBench
      InStore
    }
  }
  

  Player.AutoPlayer -up-|> Player.Player
  Player.ConsolePlayer -up-|> Player.Player
  Player.Player o- - Champion.ChampionList : arenaChampions
  Player.Player o- - Champion.ChampionList : benchChampions
  Player.Player o- - Game.Game : game
  Player.Player +-down- Player.Player.ChampionType


right footer


PlantUML diagram generated by SketchIt! (https://bitbucket.org/pmesmeur/sketch.it)
For more information about this tool, please contact philippe.mesmeur@gmail.com
endfooter
@enduml

PlantUML version 1.2019.13(Tue Dec 10 17:18:29 UTC 2019)
(GPL source distribution)
Java Runtime: Java(TM) SE Runtime Environment
JVM: Java HotSpot(TM) 64-Bit Server VM
Java Version: 1.7.0_25-b15
Operating System: Linux
Default Encoding: UTF-8
Language: en
Country: US
--></g></svg>