@startuml

title __EXCEPTIONS's Class Diagram__\n

  namespace Exceptions {
    class Exceptions.ChampionNotFound {
        + ChampionNotFound()
        + ChampionNotFound()
    }
  }
  

  namespace Exceptions {
    class Exceptions.EnemyIsNotInAttackRange {
        + EnemyIsNotInAttackRange()
        + EnemyIsNotInAttackRange()
    }
  }
  

  namespace Exceptions {
    class Exceptions.EnemyNotFound {
        + EnemyNotFound()
        + EnemyNotFound()
    }
  }
  

  namespace Exceptions {
    class Exceptions.IllegalGameMove {
        + IllegalGameMove()
        + IllegalGameMove()
    }
  }
  

  namespace Exceptions {
    class Exceptions.IllegalSquare {
        + IllegalSquare()
        + IllegalSquare()
    }
  }
  

  namespace Exceptions {
    class Exceptions.InvalidInput {
        + InvalidInput()
        + InvalidInput()
    }
  }
  

  namespace Exceptions {
    class Exceptions.NoEnoughMoney {
        + NoEnoughMoney()
        + NoEnoughMoney()
    }
  }
  

  namespace Exceptions {
    class Exceptions.TeamSizeLimitExceeded {
        + TeamSizeLimitExceeded()
        + TeamSizeLimitExceeded()
    }
  }
  



right footer


PlantUML diagram generated by SketchIt! (https://bitbucket.org/pmesmeur/sketch.it)
For more information about this tool, please contact philippe.mesmeur@gmail.com
endfooter

@enduml
