<?xml version="1.0" encoding="UTF-8" standalone="no"?><svg xmlns="http://www.w3.org/2000/svg" xmlns:xlink="http://www.w3.org/1999/xlink" contentScriptType="application/ecmascript" contentStyleType="text/css" height="953px" preserveAspectRatio="none" style="width:967px;height:953px;" version="1.1" viewBox="0 0 967 953" width="967px" zoomAndPan="magnify"><defs><filter height="300%" id="f1vdquyc4qr236" width="300%" x="-1" y="-1"><feGaussianBlur result="blurOut" stdDeviation="2.0"/><feColorMatrix in="blurOut" result="blurOut2" type="matrix" values="0 0 0 0 0 0 0 0 0 0 0 0 0 0 0 0 0 0 .4 0"/><feOffset dx="4.0" dy="4.0" in="blurOut2" result="blurOut3"/><feBlend in="SourceGraphic" in2="blurOut3" mode="normal"/></filter></defs><g><text fill="#000000" font-family="sans-serif" font-size="18" lengthAdjust="spacingAndGlyphs" text-decoration="underline" textLength="243" x="356" y="16.708">CHAMPION's Class Diagram</text><text fill="#000000" font-family="sans-serif" font-size="18" lengthAdjust="spacingAndGlyphs" textLength="0" x="480.5" y="37.6611"/><!--MD5=[0219281b868824cc7575cd92d7b536b8]
cluster Champion--><polygon fill="#FFFFFF" filter="url(#f1vdquyc4qr236)" points="22,197.9063,106,197.9063,113,220.2031,661,220.2031,661,869.9063,22,869.9063,22,197.9063" style="stroke: #000000; stroke-width: 1.5;"/><line style="stroke: #000000; stroke-width: 1.5;" x1="22" x2="113" y1="220.2031" y2="220.2031"/><text fill="#000000" font-family="sans-serif" font-size="14" font-weight="bold" lengthAdjust="spacingAndGlyphs" textLength="78" x="26" y="212.9014">Champion</text><!--MD5=[0ba1dcf811818f640fc389b59dfbae80]
cluster Player--><polygon fill="#FFFFFF" filter="url(#f1vdquyc4qr236)" points="685,674.9063,740,674.9063,747,697.2031,787,697.2031,787,773.9063,685,773.9063,685,674.9063" style="stroke: #000000; stroke-width: 1.5;"/><line style="stroke: #000000; stroke-width: 1.5;" x1="685" x2="747" y1="697.2031" y2="697.2031"/><text fill="#000000" font-family="sans-serif" font-size="14" font-weight="bold" lengthAdjust="spacingAndGlyphs" textLength="49" x="689" y="689.9014">Player</text><!--MD5=[9d26b2db3b1d5d7d962c1cc26d2fdd5f]
cluster Arena--><polygon fill="#FFFFFF" filter="url(#f1vdquyc4qr236)" points="811,674.9063,864,674.9063,871,697.2031,921,697.2031,921,773.9063,811,773.9063,811,674.9063" style="stroke: #000000; stroke-width: 1.5;"/><line style="stroke: #000000; stroke-width: 1.5;" x1="811" x2="871" y1="697.2031" y2="697.2031"/><text fill="#000000" font-family="sans-serif" font-size="14" font-weight="bold" lengthAdjust="spacingAndGlyphs" textLength="47" x="815" y="689.9014">Arena</text><!--MD5=[534e0afa5b61b3d5133270fb5413bfff]
cluster Filter--><polygon fill="#FFFFFF" filter="url(#f1vdquyc4qr236)" points="75,65.9063,121,65.9063,128,88.2031,197,88.2031,197,164.9063,75,164.9063,75,65.9063" style="stroke: #000000; stroke-width: 1.5;"/><line style="stroke: #000000; stroke-width: 1.5;" x1="75" x2="128" y1="88.2031" y2="88.2031"/><text fill="#000000" font-family="sans-serif" font-size="14" font-weight="bold" lengthAdjust="spacingAndGlyphs" textLength="40" x="79" y="80.9014">Filter</text><!--MD5=[2e30de41f525748c21eeb429977ef7b2]
class Champion.Champion--><rect fill="#FEFECE" filter="url(#f1vdquyc4qr236)" height="188.8516" id="Champion.Champion" style="stroke: #A80036; stroke-width: 1.5;" width="214" x="431" y="290.4063"/><ellipse cx="502.75" cy="306.4063" fill="#ADD1B2" rx="11" ry="11" style="stroke: #A80036; stroke-width: 1.0;"/><path d="M505.0938,302.0781 L505.2656,302.1563 C505.4844,301.8438 505.6875,301.75 505.9844,301.75 C506.2813,301.75 506.5625,301.8906 506.7188,302.1563 C506.8125,302.3125 506.8281,302.4375 506.8281,302.875 L506.8281,304.2969 C506.8281,304.7188 506.7969,304.9063 506.6875,305.0625 C506.5156,305.2813 506.25,305.4219 505.9844,305.4219 C505.7656,305.4219 505.5313,305.3125 505.3906,305.1719 C505.25,305.0469 505.2188,304.9219 505.1563,304.5156 C505.0625,304.1094 504.8906,303.8906 504.4063,303.6094 C503.9375,303.3594 503.3281,303.2031 502.75,303.2031 C501.0156,303.2031 499.7656,304.5156 499.7656,306.2969 L499.7656,307.3906 C499.7656,309.0938 501.0625,310.1875 503.1094,310.1875 C503.875,310.1875 504.5625,310.0625 504.9844,309.7969 C505.1719,309.7031 505.1719,309.7031 505.625,309.2188 C505.8125,309.0313 506.0156,308.9531 506.2344,308.9531 C506.7031,308.9531 507.0938,309.3438 507.0938,309.7969 C507.0938,310.1875 506.7656,310.6406 506.1875,311.0469 C505.4375,311.5938 504.2813,311.8906 503.0625,311.8906 C500.1719,311.8906 498.0625,310 498.0625,307.4219 L498.0625,306.2969 C498.0625,303.5781 500.0625,301.5 502.6875,301.5 C503.5625,301.5 504.1563,301.6406 505.0938,302.0781 Z "/><text fill="#000000" font-family="sans-serif" font-size="12" lengthAdjust="spacingAndGlyphs" textLength="62" x="523.25" y="310.5605">Champion</text><line style="stroke: #A80036; stroke-width: 1.5;" x1="432" x2="644" y1="322.4063" y2="322.4063"/><rect fill="none" height="6" style="stroke: #C82930; stroke-width: 1.0;" width="6" x="439" y="330.4063"/><text fill="#000000" font-family="sans-serif" font-size="11" lengthAdjust="spacingAndGlyphs" textLength="188" x="451" y="336.6167">activeClasses : ChampionClass[]</text><rect fill="none" height="6" style="stroke: #C82930; stroke-width: 1.0;" width="6" x="439" y="343.2109"/><text fill="#000000" font-family="sans-serif" font-size="11" lengthAdjust="spacingAndGlyphs" textLength="52" x="451" y="349.4214">level : int</text><rect fill="none" height="6" style="stroke: #C82930; stroke-width: 1.0;" width="6" x="439" y="356.0156"/><text fill="#000000" font-family="sans-serif" font-size="11" lengthAdjust="spacingAndGlyphs" textLength="115" x="451" y="362.2261">silencedRounds : int</text><rect fill="none" height="6" style="stroke: #C82930; stroke-width: 1.0;" width="6" x="439" y="368.8203"/><text fill="#000000" font-family="sans-serif" font-size="11" lengthAdjust="spacingAndGlyphs" textLength="114" x="451" y="375.0308">stunnedRounds : int</text><line style="stroke: #A80036; stroke-width: 1.5;" x1="432" x2="644" y1="381.625" y2="381.625"/><ellipse cx="442" cy="392.625" fill="#84BE84" rx="3" ry="3" style="stroke: #038048; stroke-width: 1.0;"/><text fill="#000000" font-family="sans-serif" font-size="11" lengthAdjust="spacingAndGlyphs" textLength="65" x="451" y="395.8354">Champion()</text><ellipse cx="442" cy="405.4297" fill="#84BE84" rx="3" ry="3" style="stroke: #038048; stroke-width: 1.0;"/><text fill="#000000" font-family="sans-serif" font-size="11" lengthAdjust="spacingAndGlyphs" textLength="65" x="451" y="408.6401">Champion()</text><ellipse cx="442" cy="418.2344" fill="#84BE84" rx="3" ry="3" style="stroke: #038048; stroke-width: 1.0;"/><text fill="#000000" font-family="sans-serif" font-size="11" lengthAdjust="spacingAndGlyphs" textLength="57" x="451" y="421.4448">Distance()</text><ellipse cx="442" cy="431.0391" fill="#84BE84" rx="3" ry="3" style="stroke: #038048; stroke-width: 1.0;"/><text fill="#000000" font-family="sans-serif" font-size="11" lengthAdjust="spacingAndGlyphs" textLength="124" x="451" y="434.2495">GetIntendedDamage()</text><ellipse cx="442" cy="443.8438" fill="#84BE84" rx="3" ry="3" style="stroke: #038048; stroke-width: 1.0;"/><text fill="#000000" font-family="sans-serif" font-size="11" lengthAdjust="spacingAndGlyphs" textLength="171" x="451" y="447.0542">generateBasicAttackDamage()</text><ellipse cx="442" cy="456.6484" fill="#84BE84" rx="3" ry="3" style="stroke: #038048; stroke-width: 1.0;"/><text fill="#000000" font-family="sans-serif" font-size="11" lengthAdjust="spacingAndGlyphs" textLength="53" x="451" y="459.8589">toString()</text><ellipse cx="442" cy="469.4531" fill="#84BE84" rx="3" ry="3" style="stroke: #038048; stroke-width: 1.0;"/><text fill="#000000" font-family="sans-serif" font-size="11" lengthAdjust="spacingAndGlyphs" textLength="96" x="451" y="472.6636">toStringInArena()</text><!--MD5=[fd2363540126d7537678a096acf6c13d]
class Champion.Champion.ChampionAttributes--><rect fill="#FEFECE" filter="url(#f1vdquyc4qr236)" height="240.0703" id="Champion.Champion.ChampionAttributes" style="stroke: #A80036; stroke-width: 1.5;" width="222" x="83" y="613.9063"/><ellipse cx="98" cy="629.9063" fill="#ADD1B2" rx="11" ry="11" style="stroke: #A80036; stroke-width: 1.0;"/><path d="M100.3438,625.5781 L100.5156,625.6563 C100.7344,625.3438 100.9375,625.25 101.2344,625.25 C101.5313,625.25 101.8125,625.3906 101.9688,625.6563 C102.0625,625.8125 102.0781,625.9375 102.0781,626.375 L102.0781,627.7969 C102.0781,628.2188 102.0469,628.4063 101.9375,628.5625 C101.7656,628.7813 101.5,628.9219 101.2344,628.9219 C101.0156,628.9219 100.7813,628.8125 100.6406,628.6719 C100.5,628.5469 100.4688,628.4219 100.4063,628.0156 C100.3125,627.6094 100.1406,627.3906 99.6563,627.1094 C99.1875,626.8594 98.5781,626.7031 98,626.7031 C96.2656,626.7031 95.0156,628.0156 95.0156,629.7969 L95.0156,630.8906 C95.0156,632.5938 96.3125,633.6875 98.3594,633.6875 C99.125,633.6875 99.8125,633.5625 100.2344,633.2969 C100.4219,633.2031 100.4219,633.2031 100.875,632.7188 C101.0625,632.5313 101.2656,632.4531 101.4844,632.4531 C101.9531,632.4531 102.3438,632.8438 102.3438,633.2969 C102.3438,633.6875 102.0156,634.1406 101.4375,634.5469 C100.6875,635.0938 99.5313,635.3906 98.3125,635.3906 C95.4219,635.3906 93.3125,633.5 93.3125,630.9219 L93.3125,629.7969 C93.3125,627.0781 95.3125,625 97.9375,625 C98.8125,625 99.4063,625.1406 100.3438,625.5781 Z "/><text fill="#000000" font-family="sans-serif" font-size="12" lengthAdjust="spacingAndGlyphs" textLength="190" x="112" y="634.0605">Champion.ChampionAttributes</text><line style="stroke: #A80036; stroke-width: 1.5;" x1="84" x2="304" y1="645.9063" y2="645.9063"/><rect fill="none" height="6" style="stroke: #C82930; stroke-width: 1.0;" width="6" x="91" y="653.9063"/><text fill="#000000" font-family="sans-serif" font-size="11" lengthAdjust="spacingAndGlyphs" textLength="85" x="103" y="660.1167">Armor : double</text><rect fill="none" height="6" style="stroke: #C82930; stroke-width: 1.0;" width="6" x="91" y="666.7109"/><text fill="#000000" font-family="sans-serif" font-size="11" lengthAdjust="spacingAndGlyphs" textLength="131" x="103" y="672.9214">AttackDamage : double</text><rect fill="none" height="6" style="stroke: #C82930; stroke-width: 1.0;" width="6" x="91" y="679.5156"/><text fill="#000000" font-family="sans-serif" font-size="11" lengthAdjust="spacingAndGlyphs" textLength="95" x="103" y="685.7261">AttackRange : int</text><rect fill="none" height="6" style="stroke: #C82930; stroke-width: 1.0;" width="6" x="91" y="692.3203"/><text fill="#000000" font-family="sans-serif" font-size="11" lengthAdjust="spacingAndGlyphs" textLength="52" x="103" y="698.5308">Cost : int</text><rect fill="none" height="6" style="stroke: #C82930; stroke-width: 1.0;" width="6" x="91" y="705.125"/><text fill="#000000" font-family="sans-serif" font-size="11" lengthAdjust="spacingAndGlyphs" textLength="164" x="103" y="711.3354">CriticalStrikeChance : double</text><rect fill="none" height="6" style="stroke: #C82930; stroke-width: 1.0;" width="6" x="91" y="717.9297"/><text fill="#000000" font-family="sans-serif" font-size="11" lengthAdjust="spacingAndGlyphs" textLength="169" x="103" y="724.1401">CriticalStrikeDamage : double</text><rect fill="none" height="6" style="stroke: #C82930; stroke-width: 1.0;" width="6" x="91" y="730.7344"/><text fill="#000000" font-family="sans-serif" font-size="11" lengthAdjust="spacingAndGlyphs" textLength="86" x="103" y="736.9448">Health : double</text><rect fill="none" height="6" style="stroke: #C82930; stroke-width: 1.0;" width="6" x="91" y="743.5391"/><text fill="#000000" font-family="sans-serif" font-size="11" lengthAdjust="spacingAndGlyphs" textLength="117" x="103" y="749.7495">MagicResist : double</text><rect fill="none" height="6" style="stroke: #C82930; stroke-width: 1.0;" width="6" x="91" y="756.3438"/><text fill="#000000" font-family="sans-serif" font-size="11" lengthAdjust="spacingAndGlyphs" textLength="106" x="103" y="762.5542">ManaCost : double</text><rect fill="none" height="6" style="stroke: #C82930; stroke-width: 1.0;" width="6" x="91" y="769.1484"/><text fill="#000000" font-family="sans-serif" font-size="11" lengthAdjust="spacingAndGlyphs" textLength="108" x="103" y="775.3589">ManaStart : double</text><rect fill="none" height="6" style="stroke: #C82930; stroke-width: 1.0;" width="6" x="91" y="781.9531"/><text fill="#000000" font-family="sans-serif" font-size="11" lengthAdjust="spacingAndGlyphs" textLength="120" x="103" y="788.1636">MovementSpeed : int</text><rect fill="none" height="6" style="stroke: #C82930; stroke-width: 1.0;" width="6" x="91" y="794.7578"/><text fill="#000000" font-family="sans-serif" font-size="11" lengthAdjust="spacingAndGlyphs" textLength="95" x="103" y="800.9683">VisionRange : int</text><rect fill="none" height="6" style="stroke: #C82930; stroke-width: 1.0;" width="6" x="91" y="807.5625"/><text fill="#000000" font-family="sans-serif" font-size="11" lengthAdjust="spacingAndGlyphs" textLength="121" x="103" y="813.7729">currentMana : double</text><rect fill="none" height="6" style="stroke: #C82930; stroke-width: 1.0;" width="6" x="91" y="820.3672"/><text fill="#000000" font-family="sans-serif" font-size="11" lengthAdjust="spacingAndGlyphs" textLength="110" x="103" y="826.5776">maxHealth : double</text><rect fill="none" height="6" style="stroke: #C82930; stroke-width: 1.0;" width="6" x="91" y="833.1719"/><text fill="#000000" font-family="sans-serif" font-size="11" lengthAdjust="spacingAndGlyphs" textLength="104" x="103" y="839.3823">maxMana : double</text><line style="stroke: #A80036; stroke-width: 1.5;" x1="84" x2="304" y1="845.9766" y2="845.9766"/><!--MD5=[73f4f925ed5365f5c8347e8787591718]
class Champion.ChampionClass--><rect fill="#FEFECE" filter="url(#f1vdquyc4qr236)" height="304.0938" id="Champion.ChampionClass" style="stroke: #A80036; stroke-width: 1.5;" width="127" x="268.5" y="232.9063"/><ellipse cx="283.5" cy="248.9063" fill="#EB937F" rx="11" ry="11" style="stroke: #A80036; stroke-width: 1.0;"/><path d="M281.7969,249.7813 L281.7969,252.2031 L286.1563,252.2031 L286.1563,251.3281 C286.1563,250.8438 286.1875,250.7031 286.2969,250.5469 C286.4688,250.2969 286.7344,250.1875 287,250.1875 C287.2813,250.1875 287.5625,250.3438 287.7344,250.5938 C287.8125,250.75 287.8438,250.8906 287.8438,251.3281 L287.8438,253.9063 L279.8438,253.9063 C279.4531,253.9063 279.2188,253.8594 279.0781,253.7344 C278.8594,253.5781 278.7188,253.3281 278.7188,253.0625 C278.7188,252.7656 278.875,252.5 279.125,252.3281 C279.2813,252.2188 279.4375,252.2031 279.8438,252.2031 L280.0938,252.2031 L280.0938,245.6875 L279.8438,245.6875 C279.4219,245.6875 279.2344,245.6563 279.0781,245.5469 C278.8594,245.375 278.7188,245.125 278.7188,244.8438 C278.7188,244.5625 278.875,244.2656 279.125,244.1094 C279.2813,244.0156 279.4063,244 279.8438,244 L287.4688,244 L287.4688,246.5469 C287.4688,247.0156 287.4375,247.1563 287.3281,247.3281 C287.1563,247.5469 286.8906,247.6875 286.625,247.6875 C286.3438,247.6875 286.0625,247.5313 285.8906,247.2813 C285.8125,247.125 285.7813,246.9531 285.7813,246.5469 L285.7813,245.6875 L281.7969,245.6875 L281.7969,248.0938 L283.25,248.0938 L283.25,247.9688 C283.25,247.5156 283.2813,247.3594 283.3906,247.1875 C283.5625,246.9688 283.8281,246.8281 284.0781,246.8281 C284.5313,246.8281 284.8438,247.1406 284.9063,247.6094 C284.9219,247.7656 284.9219,247.8125 284.9219,247.9688 L284.9219,249.8906 C284.9219,250.3438 284.8906,250.5 284.7656,250.6563 C284.6094,250.875 284.3438,251.0156 284.0938,251.0156 C283.7969,251.0156 283.5156,250.8594 283.3594,250.6094 C283.2813,250.4531 283.25,250.2969 283.25,249.8906 L283.25,249.7813 Z "/><text fill="#000000" font-family="sans-serif" font-size="12" lengthAdjust="spacingAndGlyphs" textLength="95" x="297.5" y="253.0605">ChampionClass</text><line style="stroke: #A80036; stroke-width: 1.5;" x1="269.5" x2="394.5" y1="264.9063" y2="264.9063"/><text fill="#000000" font-family="sans-serif" font-size="11" lengthAdjust="spacingAndGlyphs" textLength="52" x="274.5" y="279.1167">Assassin</text><text fill="#000000" font-family="sans-serif" font-size="11" lengthAdjust="spacingAndGlyphs" textLength="71" x="274.5" y="291.9214">BladeMaster</text><text fill="#000000" font-family="sans-serif" font-size="11" lengthAdjust="spacingAndGlyphs" textLength="44" x="274.5" y="304.7261">Brawler</text><text fill="#000000" font-family="sans-serif" font-size="11" lengthAdjust="spacingAndGlyphs" textLength="40" x="274.5" y="317.5308">Demon</text><text fill="#000000" font-family="sans-serif" font-size="11" lengthAdjust="spacingAndGlyphs" textLength="48" x="274.5" y="330.3354">Dragons</text><text fill="#000000" font-family="sans-serif" font-size="11" lengthAdjust="spacingAndGlyphs" textLength="70" x="274.5" y="343.1401">Elementalist</text><text fill="#000000" font-family="sans-serif" font-size="11" lengthAdjust="spacingAndGlyphs" textLength="38" x="274.5" y="355.9448">Glacial</text><text fill="#000000" font-family="sans-serif" font-size="11" lengthAdjust="spacingAndGlyphs" textLength="62" x="274.5" y="368.7495">Gunslinger</text><text fill="#000000" font-family="sans-serif" font-size="11" lengthAdjust="spacingAndGlyphs" textLength="46" x="274.5" y="381.5542">Imperial</text><text fill="#000000" font-family="sans-serif" font-size="11" lengthAdjust="spacingAndGlyphs" textLength="35" x="274.5" y="394.3589">Knight</text><text fill="#000000" font-family="sans-serif" font-size="11" lengthAdjust="spacingAndGlyphs" textLength="28" x="274.5" y="407.1636">Ninja</text><text fill="#000000" font-family="sans-serif" font-size="11" lengthAdjust="spacingAndGlyphs" textLength="32" x="274.5" y="419.9683">Noble</text><text fill="#000000" font-family="sans-serif" font-size="11" lengthAdjust="spacingAndGlyphs" textLength="29" x="274.5" y="432.7729">None</text><text fill="#000000" font-family="sans-serif" font-size="11" lengthAdjust="spacingAndGlyphs" textLength="33" x="274.5" y="445.5776">Pirate</text><text fill="#000000" font-family="sans-serif" font-size="11" lengthAdjust="spacingAndGlyphs" textLength="40" x="274.5" y="458.3823">Ranger</text><text fill="#000000" font-family="sans-serif" font-size="11" lengthAdjust="spacingAndGlyphs" textLength="74" x="274.5" y="471.187">ShapeShifter</text><text fill="#000000" font-family="sans-serif" font-size="11" lengthAdjust="spacingAndGlyphs" textLength="50" x="274.5" y="483.9917">Sorcerer</text><text fill="#000000" font-family="sans-serif" font-size="11" lengthAdjust="spacingAndGlyphs" textLength="24" x="274.5" y="496.7964">Void</text><text fill="#000000" font-family="sans-serif" font-size="11" lengthAdjust="spacingAndGlyphs" textLength="22" x="274.5" y="509.6011">Wild</text><text fill="#000000" font-family="sans-serif" font-size="11" lengthAdjust="spacingAndGlyphs" textLength="36" x="274.5" y="522.4058">Yordle</text><line style="stroke: #A80036; stroke-width: 1.5;" x1="269.5" x2="394.5" y1="529" y2="529"/><!--MD5=[cd8c537fbfbe4dc9a1cd8907970d1273]
class Champion.ChampionFactory--><rect fill="#FEFECE" filter="url(#f1vdquyc4qr236)" height="60.8047" id="Champion.ChampionFactory" style="stroke: #A80036; stroke-width: 1.5;" width="140" x="340" y="703.4063"/><ellipse cx="355" cy="719.4063" fill="#ADD1B2" rx="11" ry="11" style="stroke: #A80036; stroke-width: 1.0;"/><path d="M357.3438,715.0781 L357.5156,715.1563 C357.7344,714.8438 357.9375,714.75 358.2344,714.75 C358.5313,714.75 358.8125,714.8906 358.9688,715.1563 C359.0625,715.3125 359.0781,715.4375 359.0781,715.875 L359.0781,717.2969 C359.0781,717.7188 359.0469,717.9063 358.9375,718.0625 C358.7656,718.2813 358.5,718.4219 358.2344,718.4219 C358.0156,718.4219 357.7813,718.3125 357.6406,718.1719 C357.5,718.0469 357.4688,717.9219 357.4063,717.5156 C357.3125,717.1094 357.1406,716.8906 356.6563,716.6094 C356.1875,716.3594 355.5781,716.2031 355,716.2031 C353.2656,716.2031 352.0156,717.5156 352.0156,719.2969 L352.0156,720.3906 C352.0156,722.0938 353.3125,723.1875 355.3594,723.1875 C356.125,723.1875 356.8125,723.0625 357.2344,722.7969 C357.4219,722.7031 357.4219,722.7031 357.875,722.2188 C358.0625,722.0313 358.2656,721.9531 358.4844,721.9531 C358.9531,721.9531 359.3438,722.3438 359.3438,722.7969 C359.3438,723.1875 359.0156,723.6406 358.4375,724.0469 C357.6875,724.5938 356.5313,724.8906 355.3125,724.8906 C352.4219,724.8906 350.3125,723 350.3125,720.4219 L350.3125,719.2969 C350.3125,716.5781 352.3125,714.5 354.9375,714.5 C355.8125,714.5 356.4063,714.6406 357.3438,715.0781 Z "/><text fill="#000000" font-family="sans-serif" font-size="12" lengthAdjust="spacingAndGlyphs" textLength="108" x="369" y="723.5605">ChampionFactory</text><line style="stroke: #A80036; stroke-width: 1.5;" x1="341" x2="479" y1="735.4063" y2="735.4063"/><line style="stroke: #A80036; stroke-width: 1.5;" x1="341" x2="479" y1="743.4063" y2="743.4063"/><ellipse cx="351" cy="754.4063" fill="#84BE84" rx="3" ry="3" style="stroke: #038048; stroke-width: 1.0;"/><text fill="#000000" font-family="sans-serif" font-size="11" lengthAdjust="spacingAndGlyphs" text-decoration="underline" textLength="46" x="360" y="757.6167">Create()</text><!--MD5=[e537e69b6ab10d95810170533f6691a0]
class Champion.ChampionList--><rect fill="#FEFECE" filter="url(#f1vdquyc4qr236)" height="112.0234" id="Champion.ChampionList" style="stroke: #A80036; stroke-width: 1.5;" width="195" x="38.5" y="328.9063"/><ellipse cx="90.25" cy="344.9063" fill="#ADD1B2" rx="11" ry="11" style="stroke: #A80036; stroke-width: 1.0;"/><path d="M92.5938,340.5781 L92.7656,340.6563 C92.9844,340.3438 93.1875,340.25 93.4844,340.25 C93.7813,340.25 94.0625,340.3906 94.2188,340.6563 C94.3125,340.8125 94.3281,340.9375 94.3281,341.375 L94.3281,342.7969 C94.3281,343.2188 94.2969,343.4063 94.1875,343.5625 C94.0156,343.7813 93.75,343.9219 93.4844,343.9219 C93.2656,343.9219 93.0313,343.8125 92.8906,343.6719 C92.75,343.5469 92.7188,343.4219 92.6563,343.0156 C92.5625,342.6094 92.3906,342.3906 91.9063,342.1094 C91.4375,341.8594 90.8281,341.7031 90.25,341.7031 C88.5156,341.7031 87.2656,343.0156 87.2656,344.7969 L87.2656,345.8906 C87.2656,347.5938 88.5625,348.6875 90.6094,348.6875 C91.375,348.6875 92.0625,348.5625 92.4844,348.2969 C92.6719,348.2031 92.6719,348.2031 93.125,347.7188 C93.3125,347.5313 93.5156,347.4531 93.7344,347.4531 C94.2031,347.4531 94.5938,347.8438 94.5938,348.2969 C94.5938,348.6875 94.2656,349.1406 93.6875,349.5469 C92.9375,350.0938 91.7813,350.3906 90.5625,350.3906 C87.6719,350.3906 85.5625,348.5 85.5625,345.9219 L85.5625,344.7969 C85.5625,342.0781 87.5625,340 90.1875,340 C91.0625,340 91.6563,340.1406 92.5938,340.5781 Z "/><text fill="#000000" font-family="sans-serif" font-size="12" lengthAdjust="spacingAndGlyphs" textLength="83" x="110.75" y="349.0605">ChampionList</text><line style="stroke: #A80036; stroke-width: 1.5;" x1="39.5" x2="232.5" y1="360.9063" y2="360.9063"/><rect fill="none" height="6" style="stroke: #C82930; stroke-width: 1.0;" width="6" x="46.5" y="368.9063"/><text fill="#000000" font-family="sans-serif" font-size="11" lengthAdjust="spacingAndGlyphs" textLength="169" x="58.5" y="375.1167">champions : List&lt;Champion&gt;</text><line style="stroke: #A80036; stroke-width: 1.5;" x1="39.5" x2="232.5" y1="381.7109" y2="381.7109"/><ellipse cx="49.5" cy="392.7109" fill="#84BE84" rx="3" ry="3" style="stroke: #038048; stroke-width: 1.0;"/><text fill="#000000" font-family="sans-serif" font-size="11" lengthAdjust="spacingAndGlyphs" textLength="73" x="58.5" y="395.9214">AcceptFilter()</text><ellipse cx="49.5" cy="405.5156" fill="#84BE84" rx="3" ry="3" style="stroke: #038048; stroke-width: 1.0;"/><text fill="#000000" font-family="sans-serif" font-size="11" lengthAdjust="spacingAndGlyphs" textLength="29" x="58.5" y="408.7261">add()</text><ellipse cx="49.5" cy="418.3203" fill="#84BE84" rx="3" ry="3" style="stroke: #038048; stroke-width: 1.0;"/><text fill="#000000" font-family="sans-serif" font-size="11" lengthAdjust="spacingAndGlyphs" textLength="51" x="58.5" y="421.5308">remove()</text><ellipse cx="49.5" cy="431.125" fill="#84BE84" rx="3" ry="3" style="stroke: #038048; stroke-width: 1.0;"/><text fill="#000000" font-family="sans-serif" font-size="11" lengthAdjust="spacingAndGlyphs" textLength="53" x="58.5" y="434.3354">toString()</text><!--MD5=[7bc9a0fd3650d8f7853f86338a053cd8]
class Champion.ChampionName--><rect fill="#FEFECE" filter="url(#f1vdquyc4qr236)" height="240.0703" id="Champion.ChampionName" style="stroke: #A80036; stroke-width: 1.5;" width="130" x="515" y="613.9063"/><ellipse cx="530" cy="629.9063" fill="#EB937F" rx="11" ry="11" style="stroke: #A80036; stroke-width: 1.0;"/><path d="M528.2969,630.7813 L528.2969,633.2031 L532.6563,633.2031 L532.6563,632.3281 C532.6563,631.8438 532.6875,631.7031 532.7969,631.5469 C532.9688,631.2969 533.2344,631.1875 533.5,631.1875 C533.7813,631.1875 534.0625,631.3438 534.2344,631.5938 C534.3125,631.75 534.3438,631.8906 534.3438,632.3281 L534.3438,634.9063 L526.3438,634.9063 C525.9531,634.9063 525.7188,634.8594 525.5781,634.7344 C525.3594,634.5781 525.2188,634.3281 525.2188,634.0625 C525.2188,633.7656 525.375,633.5 525.625,633.3281 C525.7813,633.2188 525.9375,633.2031 526.3438,633.2031 L526.5938,633.2031 L526.5938,626.6875 L526.3438,626.6875 C525.9219,626.6875 525.7344,626.6563 525.5781,626.5469 C525.3594,626.375 525.2188,626.125 525.2188,625.8438 C525.2188,625.5625 525.375,625.2656 525.625,625.1094 C525.7813,625.0156 525.9063,625 526.3438,625 L533.9688,625 L533.9688,627.5469 C533.9688,628.0156 533.9375,628.1563 533.8281,628.3281 C533.6563,628.5469 533.3906,628.6875 533.125,628.6875 C532.8438,628.6875 532.5625,628.5313 532.3906,628.2813 C532.3125,628.125 532.2813,627.9531 532.2813,627.5469 L532.2813,626.6875 L528.2969,626.6875 L528.2969,629.0938 L529.75,629.0938 L529.75,628.9688 C529.75,628.5156 529.7813,628.3594 529.8906,628.1875 C530.0625,627.9688 530.3281,627.8281 530.5781,627.8281 C531.0313,627.8281 531.3438,628.1406 531.4063,628.6094 C531.4219,628.7656 531.4219,628.8125 531.4219,628.9688 L531.4219,630.8906 C531.4219,631.3438 531.3906,631.5 531.2656,631.6563 C531.1094,631.875 530.8438,632.0156 530.5938,632.0156 C530.2969,632.0156 530.0156,631.8594 529.8594,631.6094 C529.7813,631.4531 529.75,631.2969 529.75,630.8906 L529.75,630.7813 Z "/><text fill="#000000" font-family="sans-serif" font-size="12" lengthAdjust="spacingAndGlyphs" textLength="98" x="544" y="634.0605">ChampionName</text><line style="stroke: #A80036; stroke-width: 1.5;" x1="516" x2="644" y1="645.9063" y2="645.9063"/><text fill="#000000" font-family="sans-serif" font-size="11" lengthAdjust="spacingAndGlyphs" textLength="36" x="521" y="660.1167">Aatrox</text><text fill="#000000" font-family="sans-serif" font-size="11" lengthAdjust="spacingAndGlyphs" textLength="34" x="521" y="672.9214">Brand</text><text fill="#000000" font-family="sans-serif" font-size="11" lengthAdjust="spacingAndGlyphs" textLength="47" x="521" y="685.7261">Chogath</text><text fill="#000000" font-family="sans-serif" font-size="11" lengthAdjust="spacingAndGlyphs" textLength="37" x="521" y="698.5308">Darius</text><text fill="#000000" font-family="sans-serif" font-size="11" lengthAdjust="spacingAndGlyphs" textLength="43" x="521" y="711.3354">Evelynn</text><text fill="#000000" font-family="sans-serif" font-size="11" lengthAdjust="spacingAndGlyphs" textLength="28" x="521" y="724.1401">Fiora</text><text fill="#000000" font-family="sans-serif" font-size="11" lengthAdjust="spacingAndGlyphs" textLength="59" x="521" y="736.9448">Gankplank</text><text fill="#000000" font-family="sans-serif" font-size="11" lengthAdjust="spacingAndGlyphs" textLength="44" x="521" y="749.7495">Karthus</text><text fill="#000000" font-family="sans-serif" font-size="11" lengthAdjust="spacingAndGlyphs" textLength="34" x="521" y="762.5542">Leona</text><text fill="#000000" font-family="sans-serif" font-size="11" lengthAdjust="spacingAndGlyphs" textLength="69" x="521" y="775.3589">MissFortune</text><text fill="#000000" font-family="sans-serif" font-size="11" lengthAdjust="spacingAndGlyphs" textLength="35" x="521" y="788.1636">Nidale</text><text fill="#000000" font-family="sans-serif" font-size="11" lengthAdjust="spacingAndGlyphs" textLength="34" x="521" y="800.9683">Poppy</text><text fill="#000000" font-family="sans-serif" font-size="11" lengthAdjust="spacingAndGlyphs" textLength="40" x="521" y="813.7729">Ranger</text><text fill="#000000" font-family="sans-serif" font-size="11" lengthAdjust="spacingAndGlyphs" textLength="42" x="521" y="826.5776">Sejuani</text><text fill="#000000" font-family="sans-serif" font-size="11" lengthAdjust="spacingAndGlyphs" textLength="31" x="521" y="839.3823">Talon</text><line style="stroke: #A80036; stroke-width: 1.5;" x1="516" x2="644" y1="845.9766" y2="845.9766"/><!--MD5=[5b0eee2ab41e1928a1b014b6a5e54494]
class Player.Player--><rect fill="#FEFECE" filter="url(#f1vdquyc4qr236)" height="48" id="Player.Player" style="stroke: #A80036; stroke-width: 1.5;" width="70" x="701" y="709.9063"/><ellipse cx="716" cy="725.9063" fill="#ADD1B2" rx="11" ry="11" style="stroke: #A80036; stroke-width: 1.0;"/><path d="M718.3438,721.5781 L718.5156,721.6563 C718.7344,721.3438 718.9375,721.25 719.2344,721.25 C719.5313,721.25 719.8125,721.3906 719.9688,721.6563 C720.0625,721.8125 720.0781,721.9375 720.0781,722.375 L720.0781,723.7969 C720.0781,724.2188 720.0469,724.4063 719.9375,724.5625 C719.7656,724.7813 719.5,724.9219 719.2344,724.9219 C719.0156,724.9219 718.7813,724.8125 718.6406,724.6719 C718.5,724.5469 718.4688,724.4219 718.4063,724.0156 C718.3125,723.6094 718.1406,723.3906 717.6563,723.1094 C717.1875,722.8594 716.5781,722.7031 716,722.7031 C714.2656,722.7031 713.0156,724.0156 713.0156,725.7969 L713.0156,726.8906 C713.0156,728.5938 714.3125,729.6875 716.3594,729.6875 C717.125,729.6875 717.8125,729.5625 718.2344,729.2969 C718.4219,729.2031 718.4219,729.2031 718.875,728.7188 C719.0625,728.5313 719.2656,728.4531 719.4844,728.4531 C719.9531,728.4531 720.3438,728.8438 720.3438,729.2969 C720.3438,729.6875 720.0156,730.1406 719.4375,730.5469 C718.6875,731.0938 717.5313,731.3906 716.3125,731.3906 C713.4219,731.3906 711.3125,729.5 711.3125,726.9219 L711.3125,725.7969 C711.3125,723.0781 713.3125,721 715.9375,721 C716.8125,721 717.4063,721.1406 718.3438,721.5781 Z "/><text fill="#000000" font-family="sans-serif" font-size="12" lengthAdjust="spacingAndGlyphs" textLength="38" x="730" y="730.0605">Player</text><line style="stroke: #A80036; stroke-width: 1.5;" x1="702" x2="770" y1="741.9063" y2="741.9063"/><line style="stroke: #A80036; stroke-width: 1.5;" x1="702" x2="770" y1="749.9063" y2="749.9063"/><!--MD5=[7c63a6da9bb732fcb81226ef5a833f8f]
class Arena.Square--><rect fill="#FEFECE" filter="url(#f1vdquyc4qr236)" height="48" id="Arena.Square" style="stroke: #A80036; stroke-width: 1.5;" width="77" x="827.5" y="709.9063"/><ellipse cx="842.5" cy="725.9063" fill="#ADD1B2" rx="11" ry="11" style="stroke: #A80036; stroke-width: 1.0;"/><path d="M844.8438,721.5781 L845.0156,721.6563 C845.2344,721.3438 845.4375,721.25 845.7344,721.25 C846.0313,721.25 846.3125,721.3906 846.4688,721.6563 C846.5625,721.8125 846.5781,721.9375 846.5781,722.375 L846.5781,723.7969 C846.5781,724.2188 846.5469,724.4063 846.4375,724.5625 C846.2656,724.7813 846,724.9219 845.7344,724.9219 C845.5156,724.9219 845.2813,724.8125 845.1406,724.6719 C845,724.5469 844.9688,724.4219 844.9063,724.0156 C844.8125,723.6094 844.6406,723.3906 844.1563,723.1094 C843.6875,722.8594 843.0781,722.7031 842.5,722.7031 C840.7656,722.7031 839.5156,724.0156 839.5156,725.7969 L839.5156,726.8906 C839.5156,728.5938 840.8125,729.6875 842.8594,729.6875 C843.625,729.6875 844.3125,729.5625 844.7344,729.2969 C844.9219,729.2031 844.9219,729.2031 845.375,728.7188 C845.5625,728.5313 845.7656,728.4531 845.9844,728.4531 C846.4531,728.4531 846.8438,728.8438 846.8438,729.2969 C846.8438,729.6875 846.5156,730.1406 845.9375,730.5469 C845.1875,731.0938 844.0313,731.3906 842.8125,731.3906 C839.9219,731.3906 837.8125,729.5 837.8125,726.9219 L837.8125,725.7969 C837.8125,723.0781 839.8125,721 842.4375,721 C843.3125,721 843.9063,721.1406 844.8438,721.5781 Z "/><text fill="#000000" font-family="sans-serif" font-size="12" lengthAdjust="spacingAndGlyphs" textLength="45" x="856.5" y="730.0605">Square</text><line style="stroke: #A80036; stroke-width: 1.5;" x1="828.5" x2="903.5" y1="741.9063" y2="741.9063"/><line style="stroke: #A80036; stroke-width: 1.5;" x1="828.5" x2="903.5" y1="749.9063" y2="749.9063"/><!--MD5=[8ae7a8d805675a2393e53a76c7faff79]
class Filter.Filterable--><rect fill="#FEFECE" filter="url(#f1vdquyc4qr236)" height="48" id="Filter.Filterable" style="stroke: #A80036; stroke-width: 1.5;" width="90" x="91" y="100.9063"/><ellipse cx="106" cy="116.9063" fill="#ADD1B2" rx="11" ry="11" style="stroke: #A80036; stroke-width: 1.0;"/><path d="M108.3438,112.5781 L108.5156,112.6563 C108.7344,112.3438 108.9375,112.25 109.2344,112.25 C109.5313,112.25 109.8125,112.3906 109.9688,112.6563 C110.0625,112.8125 110.0781,112.9375 110.0781,113.375 L110.0781,114.7969 C110.0781,115.2188 110.0469,115.4063 109.9375,115.5625 C109.7656,115.7813 109.5,115.9219 109.2344,115.9219 C109.0156,115.9219 108.7813,115.8125 108.6406,115.6719 C108.5,115.5469 108.4688,115.4219 108.4063,115.0156 C108.3125,114.6094 108.1406,114.3906 107.6563,114.1094 C107.1875,113.8594 106.5781,113.7031 106,113.7031 C104.2656,113.7031 103.0156,115.0156 103.0156,116.7969 L103.0156,117.8906 C103.0156,119.5938 104.3125,120.6875 106.3594,120.6875 C107.125,120.6875 107.8125,120.5625 108.2344,120.2969 C108.4219,120.2031 108.4219,120.2031 108.875,119.7188 C109.0625,119.5313 109.2656,119.4531 109.4844,119.4531 C109.9531,119.4531 110.3438,119.8438 110.3438,120.2969 C110.3438,120.6875 110.0156,121.1406 109.4375,121.5469 C108.6875,122.0938 107.5313,122.3906 106.3125,122.3906 C103.4219,122.3906 101.3125,120.5 101.3125,117.9219 L101.3125,116.7969 C101.3125,114.0781 103.3125,112 105.9375,112 C106.8125,112 107.4063,112.1406 108.3438,112.5781 Z "/><text fill="#000000" font-family="sans-serif" font-size="12" lengthAdjust="spacingAndGlyphs" textLength="58" x="120" y="121.0605">Filterable</text><line style="stroke: #A80036; stroke-width: 1.5;" x1="92" x2="180" y1="132.9063" y2="132.9063"/><line style="stroke: #A80036; stroke-width: 1.5;" x1="92" x2="180" y1="140.9063" y2="140.9063"/><!--MD5=[8a2976c34b73dd6952ceb47ef29eb0a3]
reverse link Champion.Champion to Champion.Champion.ChampionAttributes--><path d="M466.543,489.3663 C450.578,507.1353 432.523,524.0023 413,536.9063 C373.934,562.7262 350.09,539.6683 312,566.9063 C294.024,579.7603 277.792,596.2333 263.524,613.7903 " fill="none" id="Champion.Champion&lt;-Champion.Champion.ChampionAttributes" style="stroke: #A80036; stroke-width: 1.0;"/><polygon fill="#FFFFFF" points="475.194,479.4203,468.2383,481.3223,467.3187,488.4745,474.2744,486.5725,475.194,479.4203" style="stroke: #A80036; stroke-width: 1.0;"/><text fill="#000000" font-family="sans-serif" font-size="13" lengthAdjust="spacingAndGlyphs" textLength="62" x="313" y="579.9731">attributes</text><!--MD5=[8a2976c34b73dd6952ceb47ef29eb0a3]
reverse link Champion.Champion to Champion.Champion.ChampionAttributes--><path d="M466.821,491.6953 C441.879,523.8623 412.026,557.6183 380,583.9063 C357.567,602.3193 345.735,597.2053 322,613.9063 C316.417,617.8353 310.826,621.9923 305.272,626.3073 " fill="none" id="Champion.Champion&lt;-Champion.Champion.ChampionAttributes-1" style="stroke: #A80036; stroke-width: 1.0;"/><ellipse cx="471.2876" cy="485.8282" fill="#FFFFFF" rx="8" ry="8" style="stroke: #A80036; stroke-width: 1.0;"/><line style="stroke: #A80036; stroke-width: 1.0;" x1="466.4411" x2="476.134" y1="492.1931" y2="479.4633"/><line style="stroke: #A80036; stroke-width: 1.0;" x1="464.9227" x2="477.6525" y1="480.9817" y2="490.6746"/><!--MD5=[352e9f1519c5c322cfe6dd5f21e04a1a]
reverse link Champion.Champion to Player.Player--><path d="M598.214,491.4333 C641.933,568.0523 697.639,665.6782 722.714,709.6223 " fill="none" id="Champion.Champion&lt;-Player.Player" style="stroke: #A80036; stroke-width: 1.0;"/><polygon fill="#FFFFFF" points="591.582,479.8093,591.0817,487.003,597.5297,490.2316,598.03,483.0378,591.582,479.8093" style="stroke: #A80036; stroke-width: 1.0;"/><text fill="#000000" font-family="sans-serif" font-size="13" lengthAdjust="spacingAndGlyphs" textLength="85" x="649" y="579.9731">currentPlayer</text><!--MD5=[aa8d82ca4ec1b55b034fc6de6f943058]
reverse link Champion.Champion to Champion.ChampionName--><path d="M550.944,492.8503 C555.577,531.1273 560.827,574.4973 565.577,613.7423 " fill="none" id="Champion.Champion&lt;-Champion.ChampionName" style="stroke: #A80036; stroke-width: 1.0;"/><polygon fill="#FFFFFF" points="549.366,479.8093,546.1163,486.2466,550.8086,491.7222,554.0583,485.2849,549.366,479.8093" style="stroke: #A80036; stroke-width: 1.0;"/><text fill="#000000" font-family="sans-serif" font-size="13" lengthAdjust="spacingAndGlyphs" textLength="37" x="562" y="579.9731">name</text><!--MD5=[028a2d88f6e6f65d7e3a8cfe96e5d5c2]
reverse link Champion.Champion to Arena.Square--><path d="M655.187,479.3483 C699.585,518.1433 748.629,565.3992 787,613.9063 C812.077,645.6073 837.247,685.1833 852.226,709.7533 " fill="none" id="Champion.Champion&lt;-Arena.Square" style="stroke: #A80036; stroke-width: 1.0;"/><polygon fill="#FFFFFF" points="645.199,470.6943,647.114,477.6464,654.268,478.5526,652.3529,471.6004,645.199,470.6943" style="stroke: #A80036; stroke-width: 1.0;"/><text fill="#000000" font-family="sans-serif" font-size="13" lengthAdjust="spacingAndGlyphs" textLength="50" x="758" y="579.9731">position</text><!--MD5=[3c3b6863621f138bc1829a1db7306f1c]
reverse link Champion.Champion to Champion.ChampionFactory--><path d="M496.412,498.6493 C469.907,570.5023 437.532,658.2683 420.946,703.2323 " fill="none" id="Champion.Champion&lt;-Champion.ChampionFactory" style="stroke: #A80036; stroke-width: 1.0;"/><polygon fill="none" points="489.872,496.1513,503.361,479.8093,503.007,500.9963,489.872,496.1513" style="stroke: #A80036; stroke-width: 1.0;"/><!--MD5=[1521973abb407e04965c8c24162dc7b0]
reverse link Filter.Filterable to Champion.ChampionList--><path d="M136,169.5053 C136,213.3723 136,281.1603 136,328.7423 " fill="none" id="Filter.Filterable&lt;-Champion.ChampionList" style="stroke: #A80036; stroke-width: 1.0; stroke-dasharray: 7.0,7.0;"/><polygon fill="none" points="129,169.2573,136,149.2573,143,169.2573,129,169.2573" style="stroke: #A80036; stroke-width: 1.0;"/><text fill="#888888" font-family="sans-serif" font-size="10" lengthAdjust="spacingAndGlyphs" textLength="0" x="955" y="905.1885"/><text fill="#888888" font-family="sans-serif" font-size="10" lengthAdjust="spacingAndGlyphs" textLength="0" x="955" y="916.8291"/><text fill="#888888" font-family="sans-serif" font-size="10" lengthAdjust="spacingAndGlyphs" textLength="413" x="542" y="928.4697">PlantUML diagram generated by SketchIt! (https://bitbucket.org/pmesmeur/sketch.it)</text><text fill="#888888" font-family="sans-serif" font-size="10" lengthAdjust="spacingAndGlyphs" textLength="402" x="553" y="940.1104">For more information about this tool, please contact philippe.mesmeur@gmail.com</text><!--MD5=[ae7e987c8f085814557d30be5586fe7d]
@startuml
title __CHAMPION's Class Diagram__\n

  namespace Champion {
    class Champion.Champion {
        - activeClasses : ChampionClass[]
        - level : int
        - silencedRounds : int
        - stunnedRounds : int
        + Champion()
        + Champion()
        + Distance()
        + GetIntendedDamage()
        + generateBasicAttackDamage()
        + toString()
        + toStringInArena()
    }
  }
  

  namespace Champion {
    class Champion.Champion.ChampionAttributes {
        - Armor : double
        - AttackDamage : double
        - AttackRange : int
        - Cost : int
        - CriticalStrikeChance : double
        - CriticalStrikeDamage : double
        - Health : double
        - MagicResist : double
        - ManaCost : double
        - ManaStart : double
        - MovementSpeed : int
        - VisionRange : int
        - currentMana : double
        - maxHealth : double
        - maxMana : double
    }
  }
  

  namespace Champion {
    enum ChampionClass {
      Assassin
      BladeMaster
      Brawler
      Demon
      Dragons
      Elementalist
      Glacial
      Gunslinger
      Imperial
      Knight
      Ninja
      Noble
      None
      Pirate
      Ranger
      ShapeShifter
      Sorcerer
      Void
      Wild
      Yordle
    }
  }
  

  namespace Champion {
    class Champion.ChampionFactory {
        {static} + Create()
    }
  }
  

  namespace Champion {
    class Champion.ChampionList {
        - champions : List<Champion>
        + AcceptFilter()
        + add()
        + remove()
        + toString()
    }
  }
  

  namespace Champion {
    enum ChampionName {
      Aatrox
      Brand
      Chogath
      Darius
      Evelynn
      Fiora
      Gankplank
      Karthus
      Leona
      MissFortune
      Nidale
      Poppy
      Ranger
      Sejuani
      Talon
    }
  }
  

  Champion.Champion o- - Champion.Champion.ChampionAttributes : attributes
  Champion.Champion o- - Player.Player : currentPlayer
  Champion.Champion o- - Champion.ChampionName : name
  Champion.Champion o- - Arena.Square : position
  Champion.Champion +-down- Champion.Champion.ChampionAttributes
  Champion.ChampionFactory -up-|> Champion.Champion
  Champion.ChampionList .up.|> Filter.Filterable


right footer


PlantUML diagram generated by SketchIt! (https://bitbucket.org/pmesmeur/sketch.it)
For more information about this tool, please contact philippe.mesmeur@gmail.com
endfooter
@enduml

PlantUML version 1.2019.13(Tue Dec 10 17:18:29 UTC 2019)
(GPL source distribution)
Java Runtime: Java(TM) SE Runtime Environment
JVM: Java HotSpot(TM) 64-Bit Server VM
Java Version: 1.7.0_25-b15
Operating System: Linux
Default Encoding: UTF-8
Language: en
Country: US
--></g></svg>