<?xml version="1.0" encoding="UTF-8" standalone="no"?><svg xmlns="http://www.w3.org/2000/svg" xmlns:xlink="http://www.w3.org/1999/xlink" contentScriptType="application/ecmascript" contentStyleType="text/css" height="261px" preserveAspectRatio="none" style="width:425px;height:261px;" version="1.1" viewBox="0 0 425 261" width="425px" zoomAndPan="magnify"><defs><filter height="300%" id="fuyj1ll5l7aej" width="300%" x="-1" y="-1"><feGaussianBlur result="blurOut" stdDeviation="2.0"/><feColorMatrix in="blurOut" result="blurOut2" type="matrix" values="0 0 0 0 0 0 0 0 0 0 0 0 0 0 0 0 0 0 .4 0"/><feOffset dx="4.0" dy="4.0" in="blurOut2" result="blurOut3"/><feBlend in="SourceGraphic" in2="blurOut3" mode="normal"/></filter></defs><g><text fill="#000000" font-family="sans-serif" font-size="18" lengthAdjust="spacingAndGlyphs" text-decoration="underline" textLength="340" x="36.5" y="16.708">RANDOMGENERATOR's Class Diagram</text><text fill="#000000" font-family="sans-serif" font-size="18" lengthAdjust="spacingAndGlyphs" textLength="0" x="209.5" y="37.6611"/><!--MD5=[d2470ad8e3ed7b147be066f947a1e047]
cluster RandomGenerator--><polygon fill="#FFFFFF" filter="url(#fuyj1ll5l7aej)" points="110.5,65.9063,260.5,65.9063,267.5,88.2031,290.5,88.2031,290.5,177.9063,110.5,177.9063,110.5,65.9063" style="stroke: #000000; stroke-width: 1.5;"/><line style="stroke: #000000; stroke-width: 1.5;" x1="110.5" x2="267.5" y1="88.2031" y2="88.2031"/><text fill="#000000" font-family="sans-serif" font-size="14" font-weight="bold" lengthAdjust="spacingAndGlyphs" textLength="144" x="114.5" y="80.9014">RandomGenerator</text><!--MD5=[4f8bf71c2403aa5fe6d32b6aa1dc07fc]
class RandomGenerator.RandomGenerator--><rect fill="#FEFECE" filter="url(#fuyj1ll5l7aej)" height="60.8047" id="RandomGenerator.RandomGenerator" style="stroke: #A80036; stroke-width: 1.5;" width="147" x="127" y="100.9063"/><ellipse cx="142" cy="116.9063" fill="#ADD1B2" rx="11" ry="11" style="stroke: #A80036; stroke-width: 1.0;"/><path d="M144.3438,112.5781 L144.5156,112.6563 C144.7344,112.3438 144.9375,112.25 145.2344,112.25 C145.5313,112.25 145.8125,112.3906 145.9688,112.6563 C146.0625,112.8125 146.0781,112.9375 146.0781,113.375 L146.0781,114.7969 C146.0781,115.2188 146.0469,115.4063 145.9375,115.5625 C145.7656,115.7813 145.5,115.9219 145.2344,115.9219 C145.0156,115.9219 144.7813,115.8125 144.6406,115.6719 C144.5,115.5469 144.4688,115.4219 144.4063,115.0156 C144.3125,114.6094 144.1406,114.3906 143.6563,114.1094 C143.1875,113.8594 142.5781,113.7031 142,113.7031 C140.2656,113.7031 139.0156,115.0156 139.0156,116.7969 L139.0156,117.8906 C139.0156,119.5938 140.3125,120.6875 142.3594,120.6875 C143.125,120.6875 143.8125,120.5625 144.2344,120.2969 C144.4219,120.2031 144.4219,120.2031 144.875,119.7188 C145.0625,119.5313 145.2656,119.4531 145.4844,119.4531 C145.9531,119.4531 146.3438,119.8438 146.3438,120.2969 C146.3438,120.6875 146.0156,121.1406 145.4375,121.5469 C144.6875,122.0938 143.5313,122.3906 142.3125,122.3906 C139.4219,122.3906 137.3125,120.5 137.3125,117.9219 L137.3125,116.7969 C137.3125,114.0781 139.3125,112 141.9375,112 C142.8125,112 143.4063,112.1406 144.3438,112.5781 Z "/><text fill="#000000" font-family="sans-serif" font-size="12" lengthAdjust="spacingAndGlyphs" textLength="115" x="156" y="121.0605">RandomGenerator</text><line style="stroke: #A80036; stroke-width: 1.5;" x1="128" x2="273" y1="132.9063" y2="132.9063"/><line style="stroke: #A80036; stroke-width: 1.5;" x1="128" x2="273" y1="140.9063" y2="140.9063"/><ellipse cx="138" cy="151.9063" fill="#84BE84" rx="3" ry="3" style="stroke: #038048; stroke-width: 1.0;"/><text fill="#000000" font-family="sans-serif" font-size="11" lengthAdjust="spacingAndGlyphs" text-decoration="underline" textLength="117" x="147" y="155.1167">getRandomNumber()</text><text fill="#888888" font-family="sans-serif" font-size="10" lengthAdjust="spacingAndGlyphs" textLength="0" x="413" y="213.1885"/><text fill="#888888" font-family="sans-serif" font-size="10" lengthAdjust="spacingAndGlyphs" textLength="0" x="413" y="224.8291"/><text fill="#888888" font-family="sans-serif" font-size="10" lengthAdjust="spacingAndGlyphs" textLength="413" x="0" y="236.4697">PlantUML diagram generated by SketchIt! (https://bitbucket.org/pmesmeur/sketch.it)</text><text fill="#888888" font-family="sans-serif" font-size="10" lengthAdjust="spacingAndGlyphs" textLength="402" x="11" y="248.1104">For more information about this tool, please contact philippe.mesmeur@gmail.com</text><!--MD5=[4793ef8acd2bfe9017a8c727f99d498b]
@startuml
title __RANDOMGENERATOR's Class Diagram__\n

  namespace RandomGenerator {
    class RandomGenerator.RandomGenerator {
        {static} + getRandomNumber()
    }
  }
  



right footer


PlantUML diagram generated by SketchIt! (https://bitbucket.org/pmesmeur/sketch.it)
For more information about this tool, please contact philippe.mesmeur@gmail.com
endfooter
@enduml

PlantUML version 1.2019.13(Tue Dec 10 17:18:29 UTC 2019)
(GPL source distribution)
Java Runtime: Java(TM) SE Runtime Environment
JVM: Java HotSpot(TM) 64-Bit Server VM
Java Version: 1.7.0_25-b15
Operating System: Linux
Default Encoding: UTF-8
Language: en
Country: US
--></g></svg>