@startuml

title __ARENA's Class Diagram__\n

  namespace Arena {
    class Arena.Arena {
        - m : int
        - n : int
        - squares : Square[][]
        + Arena()
        + Arena()
        + getM()
        + getN()
        + getSquare()
        + getSquares()
        + inRange()
        + inRange()
        + setM()
        + setN()
        + setSquare()
        + setSquares()
    }
  }
  

  namespace Arena {
    class Arena.Square {
        - x : int
        - y : int
        + Square()
        + Square()
        + Square()
        + getCurrentChampions()
        + getX()
        + getY()
        + setCurrentChampions()
        + setX()
        + setY()
        + toString()
        + toStringInArena()
        ~ inRange()
    }
  }
  

  Arena.Square o-- Champion.ChampionList : currentChampions


right footer


PlantUML diagram generated by SketchIt! (https://bitbucket.org/pmesmeur/sketch.it)
For more information about this tool, please contact philippe.mesmeur@gmail.com
endfooter

@enduml
